[
  {
    "altTitle" : "Car Seat Cover Coupon",
    "imageSource" : "https://googledrive.com/host/0B1EngjXO8pSMZHhxdnVtY0RzbEU/wetsuit-seatcover-coupon.jpg"
  },
  {
    "altTitle" : "Lug Nut Cover Coupon",
    "imageSource" : "https://googledrive.com/host/0B1EngjXO8pSMZHhxdnVtY0RzbEU/lugnut-coupon.jpg"
  }
]
