[
  {
    "altTitle" : "Marine Spring Hose Coupon",
    "imageSource" : "https://googledrive.com/host/0B1EngjXO8pSMZHhxdnVtY0RzbEU/spring-hose-coupon.jpg"
  },
  {
    "altTitle" : "Fuji Bike Coupon",
    "imageSource" : "https://googledrive.com/host/0B1EngjXO8pSMZHhxdnVtY0RzbEU/bike-coupon.jpg"
  }
]
